Info: 2022/01/11 05:03:54 03-02_updatedLogger.go:41: Lets Start the application...
Info: 2022/01/11 05:03:54 03-02_updatedLogger.go:42: Processing the database
Info: 2022/01/11 05:04:34 03-02_updatedLogger.go:41: Lets Start the application...
Info: 2022/01/11 05:04:34 03-02_updatedLogger.go:42: Processing the database
Info: 2022/01/11 05:04:58 03-02_updatedLogger.go:41: Lets Start the application...
Info: 2022/01/11 05:04:58 03-02_updatedLogger.go:42: Processing the database
Info: 2022/01/11 05:05:12 03-02_updatedLogger.go:41: Lets Start the application...
Info: 2022/01/11 05:05:12 03-02_updatedLogger.go:42: Processing the database
